{
    "name": "Rulz-AI",
    "type": "mongodb-atlas",
    "config": {
        "clusterName": "Rulz-AI",
        "readPreference": "primary",
        "wireProtocolEnabled": false
    },
    "version": 1
}
