{
    "roles": [
        {
            "name": "readAndWriteAll",
            "apply_when": {},
            "read": true,
            "write": true,
            "insert": true,
            "delete": true,
            "search": true
        }
    ]
}
